C:\Users\Ksu\Desktop\Веб-тест мастера\webtest-master_Teacher&Students\webtest-master\service\src\main\java\com\levelup\service\impl\StudentServiceImpl.java
C:\Users\Ksu\Desktop\Веб-тест мастера\webtest-master_Teacher&Students\webtest-master\service\src\main\java\com\levelup\service\StudentService.java
C:\Users\Ksu\Desktop\Веб-тест мастера\webtest-master_Teacher&Students\webtest-master\service\src\main\java\com\levelup\service\impl\TeacherServiceImpl.java
C:\Users\Ksu\Desktop\Веб-тест мастера\webtest-master_Teacher&Students\webtest-master\service\src\main\java\com\levelup\service\TeacherService.java
