C:\Users\Ksu\Desktop\Веб-тест мастера\webtest-master6\service\src\main\java\com\levelup\service\AccountService.java
C:\Users\Ksu\Desktop\Веб-тест мастера\webtest-master6\service\src\main\java\com\levelup\service\impl\TransactionServiceImpl.java
C:\Users\Ksu\Desktop\Веб-тест мастера\webtest-master6\service\src\main\java\com\levelup\service\TransactionService.java
C:\Users\Ksu\Desktop\Веб-тест мастера\webtest-master6\service\src\main\java\com\levelup\service\impl\AccountServiceImpl.java
